Mixins ( миксины )

Перечень готовых миксинов и способы их вызова.

1) Pseudo

Описание:
- Когда вы используете ::before и ::after, вы всегда нуждаетесь в трех строчках кода ( content, display, position ).

Использование:  @include pseudo; или @include pseudo();

Пример:

div::after {
  @include pseudo;
  top: -1rem; left: -1rem;
  width: 1rem; height: 1rem;
}

--------------------------------------------------------------------------------------------------------------------

2) Z-index

Описание:
- В большом проекте бывает трудно уследить за всеми значениями индекса, а этот миксин поможет собрать их в одном месте.
Когда вы захотите использовать z-index, назовите его так же, как ваш класс, и добавьте в ваш файл переменных/настроек, как ниже. Вы никогда больше не будете иметь проблем с z-index: 9999999.

Использование: z('зарегистрированное название')

$z-indexes: (
  "outdated-browser",
  "modal",
  "site-header",
  "page-wrapper",
  "site-footer"
);

Пример:

.site-header {

  z-index: z('site-header');

}

-----------------------------------------------------------------------------------------------------------------------

3) Media query ( Медиа-запросы )

- Миксин, который сохранит вам очень много времени! Вы можете использовать значения только в пикселях, но у нас есть также 
настройки контрольных точек по умолчанию, которые также работают, другие же – экономят время, сохраняя свои контрольные точки последовательно.

Использование: @include mq('название устройства');

Пример:

.site-header {
  padding: 2rem;
  font-size: 1.8rem;
  @include mq('tablet-wide') {
   padding-top: 4rem;
   font-size: 2.4rem;
  }
}

------------------------------------------------------------------------------------------------------------------------

4) Truncate

- Добавить усечение к элементу, вы должны только указать границу и максимальную ширину.

Использование: @include truncate('максимальная ширина блока')

------------------------------------------------------------------------------------------------------------------------

5) Centerer

- Миксин будет центрировать дочерний элемент как по горизонтали, так и по вертикали внутри, независимо от ширины высоты.

Использование: @include centerer; или @include center(булевое значение, булевое значение);

Пример:

.parent {
  position: relative;
}

.child {
  &.both {
    @include center;
  }

  &.horizontal {
    @include center(true, false);
  }

  &.vertical {
    @include center(false, true);
  }
}
